^C:\USERS\S171680\DOCUMENTS\BITBUCKET\CGSTEMP\CGSDEMO\SRC\MAIN.CPP
C:\USERS\S171680\DOCUMENTS\BITBUCKET\CGSTEMP\CGSDEMO\RELEASE\VC140.PDB
C:\USERS\S171680\DOCUMENTS\BITBUCKET\CGSTEMP\CGSDEMO\RELEASE\MAIN.OBJ
