^C:\USERS\LUCAS\DOCUMENTS\CGSTEMP\LGAL\SRC\GALGORITHM.CPP
C:\USERS\LUCAS\DOCUMENTS\CGSTEMP\LGAL\DEBUG\LGAL.PDB
C:\USERS\LUCAS\DOCUMENTS\CGSTEMP\LGAL\DEBUG\LGAL.IDB
C:\USERS\LUCAS\DOCUMENTS\CGSTEMP\LGAL\DEBUG\GALGORITHM.OBJ
