^C:\USERS\S171680\DOCUMENTS\BITBUCKET\CGSTEMP\LGAL\DEBUG\GALGORITHM.OBJ
/OUT:"C:\USERS\S171680\DOCUMENTS\BITBUCKET\CGSTEMP\BIN\LIB\LGAL.LIB" /NOLOGO DEBUG\GALGORITHM.OBJ
^C:\USERS\LUCAS\DOCUMENTS\CGSTEMP\LGAL\DEBUG\GALGORITHM.OBJ
/OUT:"C:\USERS\LUCAS\DOCUMENTS\CGSTEMP\BIN\LIB\LGAL.LIB" /NOLOGO DEBUG\GALGORITHM.OBJ
